{
    "prepare_queue": {
        "installed": [],
        "uninstalled": []
    },
    "config_munge": {
        "files": {
            "config.xml": {
                "parents": {
                    "/*": [
                        {
                            "xml": "<feature name=\"Console\"><param name=\"ios-package\" value=\"CDVLogger\" /></feature>",
                            "count": 1
                        },
                        {
                            "xml": "<feature name=\"InAppBrowser\"><param name=\"ios-package\" value=\"CDVInAppBrowser\" /></feature>",
                            "count": 1
                        },
                        {
                            "xml": "<feature name=\"SplashScreen\"><param name=\"ios-package\" value=\"CDVSplashScreen\" /><param name=\"onload\" value=\"true\" /></feature>",
                            "count": 1
                        }
                    ]
                }
            },
            "framework": {
                "parents": {
                    "CoreGraphics.framework": [
                        {
                            "xml": "false",
                            "count": 2
                        }
                    ]
                }
            }
        }
    },
    "installed_plugins": {
        "org.apache.cordova.console": {
            "PACKAGE_NAME": "com.weareasilia.revision844"
        },
        "org.apache.cordova.inappbrowser": {
            "PACKAGE_NAME": "com.weareasilia.revision844"
        },
        "org.apache.cordova.splashscreen": {
            "PACKAGE_NAME": "com.weareasilia.revision844"
        }
    },
    "dependent_plugins": {}
}